{
    "installed": {
        "client_id": "947985634663-lo23r0b55dlr13ke13s6tc2skbcrhum7.apps.googleusercontent.com",
        "project_id": "leave-management-1605463063921",
        "auth_uri": "https://accounts.google.com/o/oauth2/auth",
        "token_uri": "https://oauth2.googleapis.com/token",
        "auth_provider_x509_cert_url": "https://www.googleapis.com/oauth2/v1/certs",
        "client_secret": "susF1GgsammmWm3mXaSvj4vs",
        "redirect_uris": [
            "urn:ietf:wg:oauth:2.0:oob",
            "http://localhost"
        ]
    }
}